a contact +1 +346 3 14 1000
a contact +1 +346 14 3 1000
a contact +1 +346 5 7 1000
a contact +1 +346 7 5 1000
a contact +1 +346 6 11 1000
a contact +1 +346 11 6 1000
a contact +1 +346 10 12 1000
a contact +1 +346 12 10 1000
a contact +1 +524 1 7 1000
a contact +1 +524 7 1 1000
a contact +1 +792 1 5 1000
a contact +1 +792 5 1 1000
a contact +277 +1047 2 4 1000
a contact +277 +1047 4 2 1000
a contact +464 +1083 2 12 1000
a contact +464 +1083 12 2 1000
a contact +832 +1301 3 8 1000
a contact +832 +1301 8 3 1000
a contact +832 +1301 11 13 1000
a contact +832 +1301 13 11 1000
a contact +832 +1302 4 12 1000
a contact +832 +1302 12 4 1000
a contact +832 +1302 7 9 1000
a contact +832 +1302 9 7 1000
a contact +1788 +2257 5 13 1000
a contact +1788 +2257 13 5 1000
a contact +1788 +2257 8 10 1000
a contact +1788 +2257 10 8 1000
a contact +1788 +2258 4 6 1000
a contact +1788 +2258 6 4 1000
a contact +1788 +2258 9 14 1000
a contact +1788 +2258 14 9 1000
a contact +1842 +2514 1 6 1000
a contact +1842 +2514 6 1 1000
a contact +1935 +2772 1 4 1000
a contact +1935 +2772 4 1 1000
a contact +2226 +3056 2 3 1000
a contact +2226 +3056 3 2 1000
a contact +2466 +3139 2 14 1000
a contact +2466 +3139 14 2 1000
a contact +2744 +3213 5 7 1000
a contact +2744 +3213 7 5 1000
a contact +2744 +3213 10 12 1000
a contact +2744 +3213 12 10 1000
a contact +2744 +3214 3 14 1000
a contact +2744 +3214 14 3 1000
a contact +2744 +3214 6 11 1000
a contact +2744 +3214 11 6 1000
a contact +3700 +4169 3 8 1000
a contact +3700 +4169 8 3 1000
a contact +3700 +4169 4 12 1000
a contact +3700 +4169 12 4 1000
a contact +3700 +4169 7 9 1000
a contact +3700 +4169 9 7 1000
a contact +3700 +4169 11 13 1000
a contact +3700 +4169 13 11 1000
a contact +3899 +4515 1 8 1000
a contact +3899 +4515 8 1 1000
a contact +3941 +4727 1 3 1000
a contact +3941 +4727 3 1 1000
a contact +4201 +5052 2 5 1000
a contact +4201 +5052 5 2 1000
a contact +4656 +5125 4 6 1000
a contact +4656 +5125 6 4 1000
a contact +4656 +5125 5 13 1000
a contact +4656 +5125 13 5 1000
a contact +4656 +5125 8 10 1000
a contact +4656 +5125 10 8 1000
a contact +4656 +5125 9 14 1000
a contact +4656 +5125 14 9 1000
a contact +4459 +5191 2 13 1000
a contact +4459 +5191 13 2 1000
a contact +5612 +6081 3 14 1000
a contact +5612 +6081 14 3 1000
a contact +5612 +6081 5 7 1000
a contact +5612 +6081 7 5 1000
a contact +5612 +6081 6 11 1000
a contact +5612 +6081 11 6 1000
a contact +5612 +6081 10 12 1000
a contact +5612 +6081 12 10 1000
a contact +6089 +6439 1 9 1000
a contact +6089 +6439 9 1 1000
a contact +5952 +6529 1 7 1000
a contact +5952 +6529 7 1 1000
a contact +5968 +6649 1 5 1000
a contact +5968 +6649 5 1 1000
a contact +6568 +7037 3 8 1000
a contact +6568 +7037 8 3 1000
a contact +6568 +7037 4 12 1000
a contact +6568 +7037 12 4 1000
a contact +6568 +7037 7 9 1000
a contact +6568 +7037 9 7 1000
a contact +6568 +7037 11 13 1000
a contact +6568 +7037 13 11 1000
a contact +6198 +7041 2 4 1000
a contact +6198 +7041 4 2 1000
a contact +6446 +7232 2 12 1000
a contact +6446 +7232 12 2 1000
a contact +7524 +7993 4 6 1000
a contact +7524 +7993 6 4 1000
a contact +7524 +7993 5 13 1000
a contact +7524 +7993 13 5 1000
a contact +7524 +7993 8 10 1000
a contact +7524 +7993 10 8 1000
a contact +7524 +7993 9 14 1000
a contact +7524 +7993 14 9 1000
a contact +8039 +8517 1 4 1000
a contact +8039 +8517 4 1 1000
a contact +7919 +8544 1 11 1000
a contact +7919 +8544 11 1 1000
a contact +7991 +8562 1 6 1000
a contact +7991 +8562 6 1 1000
a contact +8480 +8949 3 14 1000
a contact +8480 +8949 14 3 1000
a contact +8480 +8949 5 7 1000
a contact +8480 +8949 7 5 1000
a contact +8480 +8949 6 11 1000
a contact +8480 +8949 11 6 1000
a contact +8480 +8949 10 12 1000
a contact +8480 +8949 12 10 1000
a contact +8214 +9027 2 3 1000
a contact +8214 +9027 3 2 1000
a contact +8431 +9259 2 14 1000
a contact +8431 +9259 14 2 1000
a contact +9436 +9905 3 8 1000
a contact +9436 +9905 8 3 1000
a contact +9436 +9905 4 12 1000
a contact +9436 +9905 12 4 1000
a contact +9436 +9905 7 9 1000
a contact +9436 +9905 9 7 1000
a contact +9436 +9905 11 13 1000
a contact +9436 +9905 13 11 1000
a contact +9826 +10582 1 10 1000
a contact +9826 +10582 10 1 1000
a contact +10012 +10611 1 8 1000
a contact +10012 +10611 8 1 1000
a contact +10392 +10861 4 6 1000
a contact +10392 +10861 6 4 1000
a contact +10392 +10861 5 13 1000
a contact +10392 +10861 13 5 1000
a contact +10392 +10861 8 10 1000
a contact +10392 +10861 10 8 1000
a contact +10392 +10861 9 14 1000
a contact +10392 +10861 14 9 1000
a contact +10246 +11012 2 5 1000
a contact +10246 +11012 5 2 1000
a contact +10417 +11267 2 13 1000
a contact +10417 +11267 13 2 1000
a contact +11348 +11817 3 14 1000
a contact +11348 +11817 14 3 1000
a contact +11348 +11817 5 7 1000
a contact +11348 +11817 7 5 1000
a contact +11348 +11817 6 11 1000
a contact +11348 +11817 11 6 1000
a contact +11348 +11817 10 12 1000
a contact +11348 +11817 12 10 1000
a contact +11771 +12595 1 9 1000
a contact +11771 +12595 9 1 1000
a contact +12017 +12668 1 7 1000
a contact +12017 +12668 7 1 1000
a contact +12304 +12773 3 8 1000
a contact +12304 +12773 8 3 1000
a contact +12304 +12773 4 12 1000
a contact +12304 +12773 12 4 1000
a contact +12304 +12773 7 9 1000
a contact +12304 +12773 9 7 1000
a contact +12304 +12773 11 13 1000
a contact +12304 +12773 13 11 1000
a contact +12293 +13001 2 4 1000
a contact +12293 +13001 4 2 1000
a contact +12409 +13255 2 12 1000
a contact +12409 +13255 12 2 1000
a contact +13260 +13729 4 6 1000
a contact +13260 +13729 6 4 1000
a contact +13260 +13729 5 13 1000
a contact +13260 +13729 13 5 1000
a contact +13260 +13729 8 10 1000
a contact +13260 +13729 10 8 1000
a contact +13260 +13729 9 14 1000
a contact +13260 +13729 14 9 1000
a contact +13743 +14592 1 11 1000
a contact +13743 +14592 11 1 1000
a contact +14216 +14685 3 14 1000
a contact +14216 +14685 14 3 1000
a contact +14216 +14685 5 7 1000
a contact +14216 +14685 7 5 1000
a contact +14216 +14685 6 11 1000
a contact +14216 +14685 11 6 1000
a contact +14216 +14685 10 12 1000
a contact +14216 +14685 12 10 1000
a contact +14010 +14724 1 6 1000
a contact +14010 +14724 6 1 1000
a contact +14347 +14997 2 3 1000
a contact +14347 +14997 3 2 1000
a contact +14410 +15221 2 14 1000
a contact +14410 +15221 14 2 1000
a contact +15172 +15641 3 8 1000
a contact +15172 +15641 8 3 1000
a contact +15172 +15641 4 12 1000
a contact +15172 +15641 12 4 1000
a contact +15172 +15641 7 9 1000
a contact +15172 +15641 9 7 1000
a contact +15172 +15641 11 13 1000
a contact +15172 +15641 13 11 1000
a contact +15736 +16582 1 10 1000
a contact +15736 +16582 10 1 1000
a contact +16128 +16597 4 6 1000
a contact +16128 +16597 6 4 1000
a contact +16128 +16597 5 13 1000
a contact +16128 +16597 13 5 1000
a contact +16128 +16597 8 10 1000
a contact +16128 +16597 10 8 1000
a contact +16128 +16597 9 14 1000
a contact +16128 +16597 14 9 1000
a contact +15997 +16769 1 8 1000
a contact +15997 +16769 8 1 1000
a contact +16401 +17005 2 5 1000
a contact +16401 +17005 5 2 1000
a contact +16426 +17158 2 13 1000
a contact +16426 +17158 13 2 1000
a contact +17084 +17553 3 14 1000
a contact +17084 +17553 14 3 1000
a contact +17083 +17553 5 7 1000
a contact +17083 +17553 7 5 1000
a contact +17084 +17553 6 11 1000
a contact +17084 +17553 11 6 1000
a contact +17083 +17553 10 12 1000
a contact +17083 +17553 12 10 1000
a contact +18040 +18509 3 8 1000
a contact +18040 +18509 8 3 1000
a contact +18039 +18509 4 12 1000
a contact +18039 +18509 12 4 1000
a contact +18039 +18509 7 9 1000
a contact +18039 +18509 9 7 1000
a contact +18040 +18509 11 13 1000
a contact +18040 +18509 13 11 1000
a contact +17750 +18568 1 9 1000
a contact +17750 +18568 9 1 1000
a contact +17982 +18800 1 7 1000
a contact +17982 +18800 7 1 1000
a contact +18464 +18991 2 6 1000
a contact +18464 +18991 6 2 1000
a contact +18446 +19030 2 4 1000
a contact +18446 +19030 4 2 1000
a contact +18474 +19053 2 12 1000
a contact +18474 +19053 12 2 1000
a contact +18995 +19465 4 6 1000
a contact +18995 +19465 6 4 1000
a contact +18995 +19465 5 13 1000
a contact +18995 +19465 13 5 1000
a contact +18995 +19465 8 10 1000
a contact +18995 +19465 10 8 1000
a contact +18995 +19465 9 14 1000
a contact +18995 +19465 14 9 1000
a contact +19951 +20421 3 14 1000
a contact +19951 +20421 14 3 1000
a contact +19951 +20421 5 7 1000
a contact +19951 +20421 7 5 1000
a contact +19951 +20421 6 11 1000
a contact +19951 +20421 11 6 1000
a contact +19951 +20421 10 12 1000
a contact +19951 +20421 12 10 1000
a contact +19781 +20552 1 11 1000
a contact +19781 +20552 11 1 1000
a contact +19968 +20814 1 6 1000
a contact +19968 +20814 6 1 1000
a contact +20624 +20836 2 14 1000
a contact +20624 +20836 14 2 1000
a contact +20346 +21050 2 8 1000
a contact +20346 +21050 8 2 1000
a contact +20474 +21071 2 3 1000
a contact +20474 +21071 3 2 1000
a contact +20907 +21377 3 8 1000
a contact +20907 +21377 8 3 1000
a contact +20907 +21377 4 12 1000
a contact +20907 +21377 12 4 1000
a contact +20907 +21377 7 9 1000
a contact +20907 +21377 9 7 1000
a contact +20907 +21377 11 13 1000
a contact +20907 +21377 13 11 1000
a contact +21863 +22333 4 6 1000
a contact +21863 +22333 6 4 1000
a contact +21863 +22333 5 13 1000
a contact +21863 +22333 13 5 1000
a contact +21863 +22333 8 10 1000
a contact +21863 +22333 10 8 1000
a contact +21863 +22333 9 14 1000
a contact +21863 +22333 14 9 1000
a contact +21827 +22540 1 10 1000
a contact +21827 +22540 10 1 1000
a contact +21957 +22807 1 8 1000
a contact +21957 +22807 8 1 1000
a contact +22275 +23072 2 7 1000
a contact +22275 +23072 7 2 1000
a contact +22486 +23124 2 5 1000
a contact +22486 +23124 5 2 1000
a contact +22819 +23289 3 14 1000
a contact +22819 +23289 14 3 1000
a contact +22819 +23289 5 7 1000
a contact +22819 +23289 7 5 1000
a contact +22819 +23289 6 11 1000
a contact +22819 +23289 11 6 1000
a contact +22819 +23289 10 12 1000
a contact +22819 +23289 12 10 1000
a contact +23775 +24245 3 8 1000
a contact +23775 +24245 8 3 1000
a contact +23775 +24245 4 12 1000
a contact +23775 +24245 12 4 1000
a contact +23775 +24245 7 9 1000
a contact +23775 +24245 9 7 1000
a contact +23775 +24245 11 13 1000
a contact +23775 +24245 13 11 1000
a contact +23883 +24533 1 9 1000
a contact +23883 +24533 9 1 1000
a contact +23956 +24778 1 7 1000
a contact +23956 +24778 7 1 1000
a contact +24234 +25075 2 6 1000
a contact +24234 +25075 6 2 1000
a contact +24484 +25179 2 4 1000
a contact +24484 +25179 4 2 1000
a contact +24731 +25201 4 6 1000
a contact +24731 +25201 6 4 1000
a contact +24731 +25201 5 13 1000
a contact +24731 +25201 13 5 1000
a contact +24731 +25201 8 10 1000
a contact +24731 +25201 10 8 1000
a contact +24731 +25201 9 14 1000
a contact +24731 +25201 14 9 1000
a contact +25687 +26157 3 14 1000
a contact +25687 +26157 14 3 1000
a contact +25687 +26157 5 7 1000
a contact +25687 +26157 7 5 1000
a contact +25687 +26157 6 11 1000
a contact +25687 +26157 11 6 1000
a contact +25687 +26157 10 12 1000
a contact +25687 +26157 12 10 1000
a contact +25940 +26538 1 11 1000
a contact +25940 +26538 11 1 1000
a contact +25968 +26722 1 6 1000
a contact +25968 +26722 6 1 1000
a contact +26218 +27069 2 8 1000
a contact +26218 +27069 8 2 1000
a contact +26643 +27112 4 12 1000
a contact +26643 +27112 12 4 1000
a contact +26643 +27112 7 9 1000
a contact +26643 +27112 9 7 1000
a contact +26643 +27113 3 8 1000
a contact +26643 +27113 8 3 1000
a contact +26643 +27113 11 13 1000
a contact +26643 +27113 13 11 1000
a contact +26474 +27228 2 3 1000
a contact +26474 +27228 3 2 1000
a contact +27599 +28068 4 6 1000
a contact +27599 +28068 6 4 1000
a contact +27599 +28068 9 14 1000
a contact +27599 +28068 14 9 1000
a contact +27599 +28069 5 13 1000
a contact +27599 +28069 13 5 1000
a contact +27599 +28069 8 10 1000
a contact +27599 +28069 10 8 1000
a contact +28029 +28513 1 12 1000
a contact +28029 +28513 12 1 1000
a contact +27988 +28559 1 10 1000
a contact +27988 +28559 10 1 1000
a contact +28007 +28629 1 8 1000
a contact +28007 +28629 8 1 1000
a contact +28555 +29024 3 14 1000
a contact +28555 +29024 14 3 1000
a contact +28555 +29024 6 11 1000
a contact +28555 +29024 11 6 1000
a contact +28555 +29025 5 7 1000
a contact +28555 +29025 7 5 1000
a contact +28555 +29025 10 12 1000
a contact +28555 +29025 12 10 1000
a contact +28221 +29056 2 7 1000
a contact +28221 +29056 7 2 1000
a contact +28460 +29264 2 5 1000
a contact +28460 +29264 5 2 1000
a contact +29511 +29980 3 8 1000
a contact +29511 +29980 8 3 1000
a contact +29511 +29980 4 12 1000
a contact +29511 +29980 12 4 1000
a contact +29511 +29980 7 9 1000
a contact +29511 +29980 9 7 1000
a contact +29511 +29980 11 13 1000
a contact +29511 +29980 13 11 1000
a contact +30115 +30456 1 7 1000
a contact +30115 +30456 7 1 1000
a contact +29899 +30583 1 14 1000
a contact +29899 +30583 14 1 1000
a contact +30021 +30599 1 9 1000
a contact +30021 +30599 9 1 1000
a contact +30467 +30936 4 6 1000
a contact +30467 +30936 6 4 1000
a contact +30467 +30936 5 13 1000
a contact +30467 +30936 13 5 1000
a contact +30467 +30936 8 10 1000
a contact +30467 +30936 10 8 1000
a contact +30467 +30936 9 14 1000
a contact +30467 +30936 14 9 1000
a contact +30244 +31041 2 6 1000
a contact +30244 +31041 6 2 1000
a contact +30445 +31284 2 4 1000
a contact +30445 +31284 4 2 1000
a contact +31423 +31892 3 14 1000
a contact +31423 +31892 14 3 1000
a contact +31423 +31892 5 7 1000
a contact +31423 +31892 7 5 1000
a contact +31423 +31892 6 11 1000
a contact +31423 +31892 11 6 1000
a contact +31423 +31892 10 12 1000
a contact +31423 +31892 12 10 1000
a contact +31822 +32609 1 13 1000
a contact +31822 +32609 13 1 1000
a contact +32036 +32652 1 11 1000
a contact +32036 +32652 11 1 1000
a contact +32379 +32848 3 8 1000
a contact +32379 +32848 8 3 1000
a contact +32379 +32848 4 12 1000
a contact +32379 +32848 12 4 1000
a contact +32379 +32848 7 9 1000
a contact +32379 +32848 9 7 1000
a contact +32379 +32848 11 13 1000
a contact +32379 +32848 13 11 1000
a contact +32282 +33028 2 8 1000
a contact +32282 +33028 8 2 1000
a contact +32433 +33285 2 3 1000
a contact +32433 +33285 3 2 1000
a contact +33335 +33804 4 6 1000
a contact +33335 +33804 6 4 1000
a contact +33335 +33804 5 13 1000
a contact +33335 +33804 13 5 1000
a contact +33335 +33804 8 10 1000
a contact +33335 +33804 10 8 1000
a contact +33335 +33804 9 14 1000
a contact +33335 +33804 14 9 1000
a contact +33778 +34615 1 12 1000
a contact +33778 +34615 12 1 1000
a contact +34035 +34710 1 10 1000
a contact +34035 +34710 10 1 1000
a contact +34291 +34760 3 14 1000
a contact +34291 +34760 14 3 1000
a contact +34291 +34760 5 7 1000
a contact +34291 +34760 7 5 1000
a contact +34291 +34760 6 11 1000
a contact +34291 +34760 11 6 1000
a contact +34291 +34760 10 12 1000
a contact +34291 +34760 12 10 1000
a contact +34332 +35018 2 7 1000
a contact +34332 +35018 7 2 1000
a contact +34428 +35265 2 5 1000
a contact +34428 +35265 5 2 1000
a contact +35247 +35716 3 8 1000
a contact +35247 +35716 8 3 1000
a contact +35247 +35716 4 12 1000
a contact +35247 +35716 12 4 1000
a contact +35247 +35716 7 9 1000
a contact +35247 +35716 9 7 1000
a contact +35247 +35716 11 13 1000
a contact +35247 +35716 13 11 1000
a contact +35758 +36609 1 14 1000
a contact +35758 +36609 14 1 1000
a contact +36203 +36672 4 6 1000
a contact +36203 +36672 6 4 1000
a contact +36203 +36672 5 13 1000
a contact +36203 +36672 13 5 1000
a contact +36203 +36672 8 10 1000
a contact +36203 +36672 10 8 1000
a contact +36203 +36672 9 14 1000
a contact +36203 +36672 14 9 1000
a contact +36026 +36762 1 9 1000
a contact +36026 +36762 9 1 1000
a contact +36387 +37018 2 6 1000
a contact +36387 +37018 6 2 1000
a contact +36433 +37221 2 4 1000
a contact +36433 +37221 4 2 1000
a contact +37159 +37628 3 14 1000
a contact +37159 +37628 14 3 1000
a contact +37159 +37628 5 7 1000
a contact +37159 +37628 7 5 1000
a contact +37159 +37628 6 11 1000
a contact +37159 +37628 11 6 1000
a contact +37159 +37628 10 12 1000
a contact +37159 +37628 12 10 1000
a contact +38115 +38584 3 8 1000
a contact +38115 +38584 8 3 1000
a contact +38115 +38584 4 12 1000
a contact +38115 +38584 12 4 1000
a contact +38115 +38584 7 9 1000
a contact +38115 +38584 9 7 1000
a contact +38115 +38584 11 13 1000
a contact +38115 +38584 13 11 1000
a contact +37759 +38597 1 13 1000
a contact +37759 +38597 13 1 1000
a contact +38012 +38803 1 11 1000
a contact +38012 +38803 11 1 1000
a contact +38618 +38919 2 10 1000
a contact +38618 +38919 10 2 1000
a contact +38439 +39032 2 8 1000
a contact +38439 +39032 8 2 1000
a contact +38459 +39145 2 3 1000
a contact +38459 +39145 3 2 1000
a contact +39071 +39540 4 6 1000
a contact +39071 +39540 6 4 1000
a contact +39071 +39540 5 13 1000
a contact +39071 +39540 13 5 1000
a contact +39071 +39540 8 10 1000
a contact +39071 +39540 10 8 1000
a contact +39071 +39540 9 14 1000
a contact +39071 +39540 14 9 1000
a contact +40027 +40496 3 14 1000
a contact +40027 +40496 14 3 1000
a contact +40027 +40496 5 7 1000
a contact +40027 +40496 7 5 1000
a contact +40027 +40496 6 11 1000
a contact +40027 +40496 11 6 1000
a contact +40027 +40496 10 12 1000
a contact +40027 +40496 12 10 1000
a contact +39780 +40582 1 12 1000
a contact +39780 +40582 12 1 1000
a contact +39996 +40827 1 10 1000
a contact +39996 +40827 10 1 1000
a contact +40527 +41016 2 5 1000
a contact +40527 +41016 5 2 1000
a contact +40432 +41039 2 9 1000
a contact +40432 +41039 9 2 1000
a contact +40478 +41063 2 7 1000
a contact +40478 +41063 7 2 1000
a contact +40983 +41452 3 8 1000
a contact +40983 +41452 8 3 1000
a contact +40983 +41452 4 12 1000
a contact +40983 +41452 12 4 1000
a contact +40983 +41452 7 9 1000
a contact +40983 +41452 9 7 1000
a contact +40983 +41452 11 13 1000
a contact +40983 +41452 13 11 1000
a contact +41938 +42408 4 6 1000
a contact +41938 +42408 6 4 1000
a contact +41939 +42408 5 13 1000
a contact +41939 +42408 13 5 1000
a contact +41939 +42408 8 10 1000
a contact +41939 +42408 10 8 1000
a contact +41938 +42408 9 14 1000
a contact +41938 +42408 14 9 1000
a contact +41817 +42567 1 14 1000
a contact +41817 +42567 14 1 1000
a contact +41983 +42834 1 9 1000
a contact +41983 +42834 9 1 1000
a contact +42335 +43081 2 11 1000
a contact +42335 +43081 11 2 1000
a contact +42500 +43110 2 6 1000
a contact +42500 +43110 6 2 1000
a contact +42894 +43364 3 14 1000
a contact +42894 +43364 14 3 1000
a contact +42895 +43364 5 7 1000
a contact +42895 +43364 7 5 1000
a contact +42894 +43364 6 11 1000
a contact +42894 +43364 11 6 1000
a contact +42895 +43364 10 12 1000
a contact +42895 +43364 12 10 1000
a contact +43850 +44320 3 8 1000
a contact +43850 +44320 8 3 1000
a contact +43851 +44320 4 12 1000
a contact +43851 +44320 12 4 1000
a contact +43851 +44320 7 9 1000
a contact +43851 +44320 9 7 1000
a contact +43850 +44320 11 13 1000
a contact +43850 +44320 13 11 1000
a contact +43867 +44556 1 13 1000
a contact +43867 +44556 13 1 1000
a contact +43975 +44819 1 11 1000
a contact +43975 +44819 11 1 1000
a contact +44277 +45095 2 10 1000
a contact +44277 +45095 10 2 1000
a contact +44507 +45164 2 8 1000
a contact +44507 +45164 8 2 1000
a contact +44806 +45276 4 6 1000
a contact +44806 +45276 6 4 1000
a contact +44806 +45276 5 13 1000
a contact +44806 +45276 13 5 1000
a contact +44806 +45276 8 10 1000
a contact +44806 +45276 10 8 1000
a contact +44806 +45276 9 14 1000
a contact +44806 +45276 14 9 1000
a contact +45762 +46232 3 14 1000
a contact +45762 +46232 14 3 1000
a contact +45762 +46232 5 7 1000
a contact +45762 +46232 7 5 1000
a contact +45762 +46232 6 11 1000
a contact +45762 +46232 11 6 1000
a contact +45762 +46232 10 12 1000
a contact +45762 +46232 12 10 1000
a contact +45924 +46553 1 12 1000
a contact +45924 +46553 12 1 1000
a contact +45978 +46781 1 10 1000
a contact +45978 +46781 10 1 1000
a contact +46245 +47094 2 9 1000
a contact +46245 +47094 9 2 1000
a contact +46718 +47188 3 8 1000
a contact +46718 +47188 8 3 1000
a contact +46718 +47188 4 12 1000
a contact +46718 +47188 12 4 1000
a contact +46718 +47188 7 9 1000
a contact +46718 +47188 9 7 1000
a contact +46718 +47188 11 13 1000
a contact +46718 +47188 13 11 1000
a contact +46501 +47218 2 7 1000
a contact +46501 +47218 7 2 1000
a contact +47674 +48144 4 6 1000
a contact +47674 +48144 6 4 1000
a contact +47674 +48144 5 13 1000
a contact +47674 +48144 13 5 1000
a contact +47674 +48144 8 10 1000
a contact +47674 +48144 10 8 1000
a contact +47674 +48144 9 14 1000
a contact +47674 +48144 14 9 1000
a contact +48216 +48408 1 3 1000
a contact +48216 +48408 3 1 1000
a contact +47979 +48564 1 14 1000
a contact +47979 +48564 14 1 1000
a contact +47998 +48713 1 9 1000
a contact +47998 +48713 9 1 1000
a contact +48237 +49084 2 11 1000
a contact +48237 +49084 11 2 1000
a contact +48630 +49100 3 14 1000
a contact +48630 +49100 14 3 1000
a contact +48630 +49100 5 7 1000
a contact +48630 +49100 7 5 1000
a contact +48630 +49100 6 11 1000
a contact +48630 +49100 11 6 1000
a contact +48630 +49100 10 12 1000
a contact +48630 +49100 12 10 1000
a contact +48489 +49263 2 6 1000
a contact +48489 +49263 6 2 1000
a contact +49586 +50056 3 8 1000
a contact +49586 +50056 8 3 1000
a contact +49586 +50056 4 12 1000
a contact +49586 +50056 12 4 1000
a contact +49586 +50056 7 9 1000
a contact +49586 +50056 9 7 1000
a contact +49586 +50056 11 13 1000
a contact +49586 +50056 13 11 1000
a contact +49991 +50567 1 5 1000
a contact +49991 +50567 5 1 1000
a contact +50023 +50592 1 13 1000
a contact +50023 +50592 13 1 1000
a contact +50053 +50599 1 11 1000
a contact +50053 +50599 11 1 1000
a contact +50542 +51012 4 6 1000
a contact +50542 +51012 6 4 1000
a contact +50542 +51012 5 13 1000
a contact +50542 +51012 13 5 1000
a contact +50542 +51012 8 10 1000
a contact +50542 +51012 10 8 1000
a contact +50542 +51012 9 14 1000
a contact +50542 +51012 14 9 1000
a contact +50248 +51071 2 10 1000
a contact +50248 +51071 10 2 1000
a contact +50474 +51293 2 8 1000
a contact +50474 +51293 8 2 1000
a contact +51498 +51967 3 14 1000
a contact +51498 +51967 14 3 1000
a contact +51498 +51967 6 11 1000
a contact +51498 +51967 11 6 1000
a contact +51498 +51968 5 7 1000
a contact +51498 +51968 7 5 1000
a contact +51498 +51968 10 12 1000
a contact +51498 +51968 12 10 1000
a contact +51886 +52616 1 4 1000
a contact +51886 +52616 4 1 1000
a contact +52048 +52638 1 12 1000
a contact +52048 +52638 12 1 1000
a contact +52454 +52923 3 8 1000
a contact +52454 +52923 8 3 1000
a contact +52454 +52923 11 13 1000
a contact +52454 +52923 13 11 1000
a contact +52454 +52924 4 12 1000
a contact +52454 +52924 12 4 1000
a contact +52454 +52924 7 9 1000
a contact +52454 +52924 9 7 1000
a contact +52276 +53056 2 9 1000
a contact +52276 +53056 9 2 1000
a contact +52460 +53306 2 7 1000
a contact +52460 +53306 7 2 1000
a contact +53410 +53879 5 13 1000
a contact +53410 +53879 13 5 1000
a contact +53410 +53879 8 10 1000
a contact +53410 +53879 10 8 1000
a contact +53410 +53880 4 6 1000
a contact +53410 +53880 6 4 1000
a contact +53410 +53880 9 14 1000
a contact +53410 +53880 14 9 1000
a contact +53822 +54633 1 3 1000
a contact +53822 +54633 3 1 1000
a contact +54057 +54693 1 14 1000
a contact +54057 +54693 14 1 1000
a contact +54366 +54835 3 14 1000
a contact +54366 +54835 14 3 1000
a contact +54366 +54835 5 7 1000
a contact +54366 +54835 7 5 1000
a contact +54366 +54835 6 11 1000
a contact +54366 +54835 11 6 1000
a contact +54366 +54835 10 12 1000
a contact +54366 +54835 12 10 1000
a contact +54319 +55043 2 11 1000
a contact +54319 +55043 11 2 1000
a contact +54450 +55300 2 6 1000
a contact +54450 +55300 6 2 1000
a contact +55322 +55791 3 8 1000
a contact +55322 +55791 8 3 1000
a contact +55322 +55791 4 12 1000
a contact +55322 +55791 12 4 1000
a contact +55322 +55791 7 9 1000
a contact +55322 +55791 9 7 1000
a contact +55322 +55791 11 13 1000
a contact +55322 +55791 13 11 1000
a contact +55787 +56634 1 5 1000
a contact +55787 +56634 5 1 1000
a contact +56278 +56747 4 6 1000
a contact +56278 +56747 6 4 1000
a contact +56278 +56747 5 13 1000
a contact +56278 +56747 13 5 1000
a contact +56278 +56747 8 10 1000
a contact +56278 +56747 10 8 1000
a contact +56278 +56747 9 14 1000
a contact +56278 +56747 14 9 1000
a contact +56053 +56750 1 13 1000
a contact +56053 +56750 13 1 1000
a contact +56372 +57037 2 10 1000
a contact +56372 +57037 10 2 1000
a contact +56448 +57272 2 8 1000
a contact +56448 +57272 8 2 1000
a contact +57234 +57703 3 14 1000
a contact +57234 +57703 14 3 1000
a contact +57234 +57703 5 7 1000
a contact +57234 +57703 7 5 1000
a contact +57234 +57703 6 11 1000
a contact +57234 +57703 11 6 1000
a contact +57234 +57703 10 12 1000
a contact +57234 +57703 12 10 1000
a contact +57776 +58625 1 4 1000
a contact +57776 +58625 4 1 1000
a contact +58190 +58659 3 8 1000
a contact +58190 +58659 8 3 1000
a contact +58190 +58659 4 12 1000
a contact +58190 +58659 12 4 1000
a contact +58190 +58659 7 9 1000
a contact +58190 +58659 9 7 1000
a contact +58190 +58659 11 13 1000
a contact +58190 +58659 13 11 1000
a contact +58041 +58799 1 12 1000
a contact +58041 +58799 12 1 1000
a contact +58427 +59041 2 9 1000
a contact +58427 +59041 9 2 1000
a contact +58460 +59217 2 7 1000
a contact +58460 +59217 7 2 1000
a contact +59146 +59615 4 6 1000
a contact +59146 +59615 6 4 1000
a contact +59146 +59615 5 13 1000
a contact +59146 +59615 13 5 1000
a contact +59146 +59615 8 10 1000
a contact +59146 +59615 10 8 1000
a contact +59146 +59615 9 14 1000
a contact +59146 +59615 14 9 1000
a contact +60102 +60571 3 14 1000
a contact +60102 +60571 14 3 1000
a contact +60102 +60571 5 7 1000
a contact +60102 +60571 7 5 1000
a contact +60102 +60571 6 11 1000
a contact +60102 +60571 11 6 1000
a contact +60102 +60571 10 12 1000
a contact +60102 +60571 12 10 1000
a contact +59784 +60612 1 3 1000
a contact +59784 +60612 3 1 1000
a contact +60026 +60834 1 14 1000
a contact +60026 +60834 14 1 1000
a contact +60549 +61003 2 13 1000
a contact +60549 +61003 13 2 1000
a contact +60475 +61061 2 11 1000
a contact +60475 +61061 11 2 1000
a contact +60497 +61125 2 6 1000
a contact +60497 +61125 6 2 1000
a contact +61058 +61527 3 8 1000
a contact +61058 +61527 8 3 1000
a contact +61058 +61527 4 12 1000
a contact +61058 +61527 12 4 1000
a contact +61058 +61527 7 9 1000
a contact +61058 +61527 9 7 1000
a contact +61058 +61527 11 13 1000
a contact +61058 +61527 13 11 1000
a contact +62014 +62483 4 6 1000
a contact +62014 +62483 6 4 1000
a contact +62014 +62483 5 13 1000
a contact +62014 +62483 13 5 1000
a contact +62014 +62483 8 10 1000
a contact +62014 +62483 10 8 1000
a contact +62014 +62483 9 14 1000
a contact +62014 +62483 14 9 1000
a contact +61811 +62596 1 5 1000
a contact +61811 +62596 5 1 1000
a contact +62011 +62852 1 13 1000
a contact +62011 +62852 13 1 1000
a contact +62599 +62959 2 8 1000
a contact +62599 +62959 8 2 1000
a contact +62410 +63079 2 12 1000
a contact +62410 +63079 12 2 1000
a contact +62508 +63099 2 10 1000
a contact +62508 +63099 10 2 1000
a contact +62970 +63439 3 14 1000
a contact +62970 +63439 14 3 1000
a contact +62970 +63439 5 7 1000
a contact +62970 +63439 7 5 1000
a contact +62970 +63439 6 11 1000
a contact +62970 +63439 11 6 1000
a contact +62970 +63439 10 12 1000
a contact +62970 +63439 12 10 1000
a contact +63926 +64395 3 8 1000
a contact +63926 +64395 8 3 1000
a contact +63926 +64395 4 12 1000
a contact +63926 +64395 12 4 1000
a contact +63926 +64395 7 9 1000
a contact +63926 +64395 9 7 1000
a contact +63926 +64395 11 13 1000
a contact +63926 +64395 13 11 1000
a contact +63854 +64582 1 4 1000
a contact +63854 +64582 4 1 1000
a contact +63999 +64850 1 12 1000
a contact +63999 +64850 12 1 1000
a contact +64329 +65108 2 14 1000
a contact +64329 +65108 14 2 1000
a contact +64524 +65149 2 9 1000
a contact +64524 +65149 9 2 1000
a contact +64882 +65351 4 6 1000
a contact +64882 +65351 6 4 1000
a contact +64882 +65351 5 13 1000
a contact +64882 +65351 13 5 1000
a contact +64882 +65351 8 10 1000
a contact +64882 +65351 10 8 1000
a contact +64882 +65351 9 14 1000
a contact +64882 +65351 14 9 1000
a contact +65838 +66307 3 14 1000
a contact +65838 +66307 14 3 1000
a contact +65838 +66307 5 7 1000
a contact +65838 +66307 7 5 1000
a contact +65838 +66307 6 11 1000
a contact +65838 +66307 11 6 1000
a contact +65838 +66307 10 12 1000
a contact +65838 +66307 12 10 1000
a contact +65908 +66573 1 3 1000
a contact +65908 +66573 3 1 1000
a contact +65995 +66828 1 14 1000
a contact +65995 +66828 14 1 1000
a contact +66282 +67115 2 13 1000
a contact +66282 +67115 13 2 1000
a contact +66525 +67205 2 11 1000
a contact +66525 +67205 11 2 1000
a contact +66793 +67263 3 8 1000
a contact +66793 +67263 8 3 1000
a contact +66794 +67263 4 12 1000
a contact +66794 +67263 12 4 1000
a contact +66794 +67263 7 9 1000
a contact +66794 +67263 9 7 1000
a contact +66793 +67263 11 13 1000
a contact +66793 +67263 13 11 1000
a contact +67750 +68219 4 6 1000
a contact +67750 +68219 6 4 1000
a contact +67749 +68219 5 13 1000
a contact +67749 +68219 13 5 1000
a contact +67749 +68219 8 10 1000
a contact +67749 +68219 10 8 1000
a contact +67750 +68219 9 14 1000
a contact +67750 +68219 14 9 1000
a contact +67965 +68575 1 5 1000
a contact +67965 +68575 5 1 1000
a contact +68003 +68779 1 13 1000
a contact +68003 +68779 13 1 1000
a contact +68259 +69111 2 12 1000
a contact +68259 +69111 12 2 1000
a contact +68705 +69175 3 14 1000
a contact +68705 +69175 14 3 1000
a contact +68705 +69175 5 7 1000
a contact +68705 +69175 7 5 1000
a contact +68705 +69175 6 11 1000
a contact +68705 +69175 11 6 1000
a contact +68705 +69175 10 12 1000
a contact +68705 +69175 12 10 1000
a contact +68517 +69256 2 10 1000
a contact +68517 +69256 10 2 1000
a contact +69661 +70131 3 8 1000
a contact +69661 +70131 8 3 1000
a contact +69661 +70131 4 12 1000
a contact +69661 +70131 12 4 1000
a contact +69661 +70131 7 9 1000
a contact +69661 +70131 9 7 1000
a contact +69661 +70131 11 13 1000
a contact +69661 +70131 13 11 1000
a contact +70120 +70518 1 6 1000
a contact +70120 +70518 6 1 1000
a contact +70017 +70592 1 4 1000
a contact +70017 +70592 4 1 1000
a contact +70033 +70697 1 12 1000
a contact +70033 +70697 12 1 1000
a contact +70617 +71087 4 6 1000
a contact +70617 +71087 6 4 1000
a contact +70617 +71087 5 13 1000
a contact +70617 +71087 13 5 1000
a contact +70617 +71087 8 10 1000
a contact +70617 +71087 10 8 1000
a contact +70617 +71087 9 14 1000
a contact +70617 +71087 14 9 1000
a contact +70258 +71099 2 14 1000
a contact +70258 +71099 14 2 1000
a contact +70504 +71296 2 9 1000
a contact +70504 +71296 9 2 1000
a contact +71573 +72043 3 14 1000
a contact +71573 +72043 14 3 1000
a contact +71573 +72043 5 7 1000
a contact +71573 +72043 7 5 1000
a contact +71573 +72043 6 11 1000
a contact +71573 +72043 11 6 1000
a contact +71573 +72043 10 12 1000
a contact +71573 +72043 12 10 1000
a contact +72113 +72555 1 14 1000
a contact +72113 +72555 14 1 1000
a contact +71965 +72610 1 8 1000
a contact +71965 +72610 8 1 1000
a contact +72054 +72627 1 3 1000
a contact +72054 +72627 3 1 1000
a contact +72529 +72999 3 8 1000
a contact +72529 +72999 8 3 1000
a contact +72529 +72999 4 12 1000
a contact +72529 +72999 12 4 1000
a contact +72529 +72999 7 9 1000
a contact +72529 +72999 9 7 1000
a contact +72529 +72999 11 13 1000
a contact +72529 +72999 13 11 1000
a contact +72276 +73085 2 13 1000
a contact +72276 +73085 13 2 1000
a contact +72489 +73320 2 11 1000
a contact +72489 +73320 11 2 1000
a contact +73485 +73955 4 6 1000
a contact +73485 +73955 6 4 1000
a contact +73485 +73955 5 13 1000
a contact +73485 +73955 13 5 1000
a contact +73485 +73955 8 10 1000
a contact +73485 +73955 10 8 1000
a contact +73485 +73955 9 14 1000
a contact +73485 +73955 14 9 1000
a contact +73878 +74644 1 7 1000
a contact +73878 +74644 7 1 1000
a contact +74073 +74677 1 5 1000
a contact +74073 +74677 5 1 1000
a contact +74441 +74911 3 14 1000
a contact +74441 +74911 14 3 1000
a contact +74441 +74911 5 7 1000
a contact +74441 +74911 7 5 1000
a contact +74441 +74911 6 11 1000
a contact +74441 +74911 11 6 1000
a contact +74441 +74911 10 12 1000
a contact +74441 +74911 12 10 1000
a contact +74311 +75070 2 12 1000
a contact +74311 +75070 12 2 1000
a contact +74476 +75326 2 10 1000
a contact +74476 +75326 10 2 1000
a contact +75397 +75866 3 8 1000
a contact +75397 +75866 8 3 1000
a contact +75397 +75866 11 13 1000
a contact +75397 +75866 13 11 1000
a contact +75397 +75867 4 12 1000
a contact +75397 +75867 12 4 1000
a contact +75397 +75867 7 9 1000
a contact +75397 +75867 9 7 1000
a contact +75826 +76654 1 6 1000
a contact +75826 +76654 6 1 1000
a contact +76076 +76735 1 4 1000
a contact +76076 +76735 4 1 1000
a contact +76353 +76822 5 13 1000
a contact +76353 +76822 13 5 1000
a contact +76353 +76822 8 10 1000
a contact +76353 +76822 10 8 1000
a contact +76353 +76823 4 6 1000
a contact +76353 +76823 6 4 1000
a contact +76353 +76823 9 14 1000
a contact +76353 +76823 14 9 1000
a contact +76358 +77060 2 14 1000
a contact +76358 +77060 14 2 1000
a contact +76468 +77312 2 9 1000
a contact +76468 +77312 9 2 1000
a contact +77309 +77778 5 7 1000
a contact +77309 +77778 7 5 1000
a contact +77309 +77778 10 12 1000
a contact +77309 +77778 12 10 1000
a contact +77309 +77779 3 14 1000
a contact +77309 +77779 14 3 1000
a contact +77309 +77779 6 11 1000
a contact +77309 +77779 11 6 1000
a contact +77800 +78651 1 8 1000
a contact +77800 +78651 8 1 1000
a contact +78265 +78734 3 8 1000
a contact +78265 +78734 8 3 1000
a contact +78265 +78734 4 12 1000
a contact +78265 +78734 12 4 1000
a contact +78265 +78734 7 9 1000
a contact +78265 +78734 9 7 1000
a contact +78265 +78734 11 13 1000
a contact +78265 +78734 13 11 1000
a contact +78069 +78789 1 3 1000
a contact +78069 +78789 3 1 1000
a contact +78413 +79057 2 13 1000
a contact +78413 +79057 13 2 1000
a contact +78470 +79275 2 11 1000
a contact +78470 +79275 11 2 1000
a contact +79221 +79690 4 6 1000
a contact +79221 +79690 6 4 1000
a contact +79221 +79690 5 13 1000
a contact +79221 +79690 13 5 1000
a contact +79221 +79690 8 10 1000
a contact +79221 +79690 10 8 1000
a contact +79221 +79690 9 14 1000
a contact +79221 +79690 14 9 1000
a contact +79797 +80640 1 7 1000
a contact +79797 +80640 7 1 1000
a contact +80177 +80646 3 14 1000
a contact +80177 +80646 14 3 1000
a contact +80177 +80646 5 7 1000
a contact +80177 +80646 7 5 1000
a contact +80177 +80646 6 11 1000
a contact +80177 +80646 11 6 1000
a contact +80177 +80646 10 12 1000
a contact +80177 +80646 12 10 1000
a contact +80055 +80833 1 5 1000
a contact +80055 +80833 5 1 1000
a contact +80790 +80845 2 4 1000
a contact +80790 +80845 4 2 1000
a contact +80466 +81067 2 12 1000
a contact +80466 +81067 12 2 1000
a contact +80489 +81208 2 10 1000
a contact +80489 +81208 10 2 1000
a contact +81133 +81602 3 8 1000
a contact +81133 +81602 8 3 1000
a contact +81133 +81602 4 12 1000
a contact +81133 +81602 12 4 1000
a contact +81133 +81602 7 9 1000
a contact +81133 +81602 9 7 1000
a contact +81133 +81602 11 13 1000
a contact +81133 +81602 13 11 1000
a contact +82089 +82558 4 6 1000
a contact +82089 +82558 6 4 1000
a contact +82089 +82558 5 13 1000
a contact +82089 +82558 13 5 1000
a contact +82089 +82558 8 10 1000
a contact +82089 +82558 10 8 1000
a contact +82089 +82558 9 14 1000
a contact +82089 +82558 14 9 1000
a contact +81812 +82626 1 6 1000
a contact +81812 +82626 6 1 1000
a contact +82040 +82862 1 4 1000
a contact +82040 +82862 4 1 1000
a contact +82506 +83060 2 3 1000
a contact +82506 +83060 3 2 1000
a contact +82509 +83093 2 14 1000
a contact +82509 +83093 14 2 1000
a contact +82542 +83097 2 9 1000
a contact +82542 +83097 9 2 1000
a contact +83045 +83514 3 14 1000
a contact +83045 +83514 14 3 1000
a contact +83045 +83514 5 7 1000
a contact +83045 +83514 7 5 1000
a contact +83045 +83514 6 11 1000
a contact +83045 +83514 11 6 1000
a contact +83045 +83514 10 12 1000
a contact +83045 +83514 12 10 1000
a contact +84001 +84470 3 8 1000
a contact +84001 +84470 8 3 1000
a contact +84001 +84470 4 12 1000
a contact +84001 +84470 12 4 1000
a contact +84001 +84470 7 9 1000
a contact +84001 +84470 9 7 1000
a contact +84001 +84470 11 13 1000
a contact +84001 +84470 13 11 1000
a contact +83845 +84610 1 8 1000
a contact +83845 +84610 8 1 1000
a contact +84752 +84819 2 11 1000
a contact +84752 +84819 11 2 1000
a contact +84026 +84873 1 3 1000
a contact +84026 +84873 3 1 1000
a contact +84395 +85113 2 5 1000
a contact +84395 +85113 5 2 1000
a contact +84536 +85136 2 13 1000
a contact +84536 +85136 13 2 1000
a contact +84957 +85426 4 6 1000
a contact +84957 +85426 6 4 1000
a contact +84957 +85426 5 13 1000
a contact +84957 +85426 13 5 1000
a contact +84957 +85426 8 10 1000
a contact +84957 +85426 10 8 1000
a contact +84957 +85426 9 14 1000
a contact +84957 +85426 14 9 1000
a contact +85913 +86382 3 14 1000
a contact +85913 +86382 14 3 1000
a contact +85913 +86382 5 7 1000
a contact +85913 +86382 7 5 1000
a contact +85913 +86382 6 11 1000
a contact +85913 +86382 11 6 1000
a contact +85913 +86382 10 12 1000
a contact +85913 +86382 12 10 1000
a range +1 +346 3 14 0
a range +1 +346 14 3 0
a range +1 +346 5 7 0
a range +1 +346 7 5 0
a range +1 +346 6 11 0
a range +1 +346 11 6 0
a range +1 +346 10 12 0
a range +1 +346 12 10 0
a range +1 +524 1 7 0
a range +1 +524 7 1 0
a range +1 +792 1 5 0
a range +1 +792 5 1 0
a range +277 +1047 2 4 0
a range +277 +1047 4 2 0
a range +464 +1083 2 12 0
a range +464 +1083 12 2 0
a range +832 +1301 3 8 0
a range +832 +1301 8 3 0
a range +832 +1301 11 13 0
a range +832 +1301 13 11 0
a range +832 +1302 4 12 0
a range +832 +1302 12 4 0
a range +832 +1302 7 9 0
a range +832 +1302 9 7 0
a range +1788 +2257 5 13 0
a range +1788 +2257 13 5 0
a range +1788 +2257 8 10 0
a range +1788 +2257 10 8 0
a range +1788 +2258 4 6 0
a range +1788 +2258 6 4 0
a range +1788 +2258 9 14 0
a range +1788 +2258 14 9 0
a range +1842 +2514 1 6 0
a range +1842 +2514 6 1 0
a range +1935 +2772 1 4 0
a range +1935 +2772 4 1 0
a range +2226 +3056 2 3 0
a range +2226 +3056 3 2 0
a range +2466 +3139 2 14 0
a range +2466 +3139 14 2 0
a range +2744 +3213 5 7 0
a range +2744 +3213 7 5 0
a range +2744 +3213 10 12 0
a range +2744 +3213 12 10 0
a range +2744 +3214 3 14 0
a range +2744 +3214 14 3 0
a range +2744 +3214 6 11 0
a range +2744 +3214 11 6 0
a range +3700 +4169 3 8 0
a range +3700 +4169 8 3 0
a range +3700 +4169 4 12 0
a range +3700 +4169 12 4 0
a range +3700 +4169 7 9 0
a range +3700 +4169 9 7 0
a range +3700 +4169 11 13 0
a range +3700 +4169 13 11 0
a range +3899 +4515 1 8 0
a range +3899 +4515 8 1 0
a range +3941 +4727 1 3 0
a range +3941 +4727 3 1 0
a range +4201 +5052 2 5 0
a range +4201 +5052 5 2 0
a range +4656 +5125 4 6 0
a range +4656 +5125 6 4 0
a range +4656 +5125 5 13 0
a range +4656 +5125 13 5 0
a range +4656 +5125 8 10 0
a range +4656 +5125 10 8 0
a range +4656 +5125 9 14 0
a range +4656 +5125 14 9 0
a range +4459 +5191 2 13 0
a range +4459 +5191 13 2 0
a range +5612 +6081 3 14 0
a range +5612 +6081 14 3 0
a range +5612 +6081 5 7 0
a range +5612 +6081 7 5 0
a range +5612 +6081 6 11 0
a range +5612 +6081 11 6 0
a range +5612 +6081 10 12 0
a range +5612 +6081 12 10 0
a range +6089 +6439 1 9 0
a range +6089 +6439 9 1 0
a range +5952 +6529 1 7 0
a range +5952 +6529 7 1 0
a range +5968 +6649 1 5 0
a range +5968 +6649 5 1 0
a range +6568 +7037 3 8 0
a range +6568 +7037 8 3 0
a range +6568 +7037 4 12 0
a range +6568 +7037 12 4 0
a range +6568 +7037 7 9 0
a range +6568 +7037 9 7 0
a range +6568 +7037 11 13 0
a range +6568 +7037 13 11 0
a range +6198 +7041 2 4 0
a range +6198 +7041 4 2 0
a range +6446 +7232 2 12 0
a range +6446 +7232 12 2 0
a range +7524 +7993 4 6 0
a range +7524 +7993 6 4 0
a range +7524 +7993 5 13 0
a range +7524 +7993 13 5 0
a range +7524 +7993 8 10 0
a range +7524 +7993 10 8 0
a range +7524 +7993 9 14 0
a range +7524 +7993 14 9 0
a range +8039 +8517 1 4 0
a range +8039 +8517 4 1 0
a range +7919 +8544 1 11 0
a range +7919 +8544 11 1 0
a range +7991 +8562 1 6 0
a range +7991 +8562 6 1 0
a range +8480 +8949 3 14 0
a range +8480 +8949 14 3 0
a range +8480 +8949 5 7 0
a range +8480 +8949 7 5 0
a range +8480 +8949 6 11 0
a range +8480 +8949 11 6 0
a range +8480 +8949 10 12 0
a range +8480 +8949 12 10 0
a range +8214 +9027 2 3 0
a range +8214 +9027 3 2 0
a range +8431 +9259 2 14 0
a range +8431 +9259 14 2 0
a range +9436 +9905 3 8 0
a range +9436 +9905 8 3 0
a range +9436 +9905 4 12 0
a range +9436 +9905 12 4 0
a range +9436 +9905 7 9 0
a range +9436 +9905 9 7 0
a range +9436 +9905 11 13 0
a range +9436 +9905 13 11 0
a range +9826 +10582 1 10 0
a range +9826 +10582 10 1 0
a range +10012 +10611 1 8 0
a range +10012 +10611 8 1 0
a range +10392 +10861 4 6 0
a range +10392 +10861 6 4 0
a range +10392 +10861 5 13 0
a range +10392 +10861 13 5 0
a range +10392 +10861 8 10 0
a range +10392 +10861 10 8 0
a range +10392 +10861 9 14 0
a range +10392 +10861 14 9 0
a range +10246 +11012 2 5 0
a range +10246 +11012 5 2 0
a range +10417 +11267 2 13 0
a range +10417 +11267 13 2 0
a range +11348 +11817 3 14 0
a range +11348 +11817 14 3 0
a range +11348 +11817 5 7 0
a range +11348 +11817 7 5 0
a range +11348 +11817 6 11 0
a range +11348 +11817 11 6 0
a range +11348 +11817 10 12 0
a range +11348 +11817 12 10 0
a range +11771 +12595 1 9 0
a range +11771 +12595 9 1 0
a range +12017 +12668 1 7 0
a range +12017 +12668 7 1 0
a range +12304 +12773 3 8 0
a range +12304 +12773 8 3 0
a range +12304 +12773 4 12 0
a range +12304 +12773 12 4 0
a range +12304 +12773 7 9 0
a range +12304 +12773 9 7 0
a range +12304 +12773 11 13 0
a range +12304 +12773 13 11 0
a range +12293 +13001 2 4 0
a range +12293 +13001 4 2 0
a range +12409 +13255 2 12 0
a range +12409 +13255 12 2 0
a range +13260 +13729 4 6 0
a range +13260 +13729 6 4 0
a range +13260 +13729 5 13 0
a range +13260 +13729 13 5 0
a range +13260 +13729 8 10 0
a range +13260 +13729 10 8 0
a range +13260 +13729 9 14 0
a range +13260 +13729 14 9 0
a range +13743 +14592 1 11 0
a range +13743 +14592 11 1 0
a range +14216 +14685 3 14 0
a range +14216 +14685 14 3 0
a range +14216 +14685 5 7 0
a range +14216 +14685 7 5 0
a range +14216 +14685 6 11 0
a range +14216 +14685 11 6 0
a range +14216 +14685 10 12 0
a range +14216 +14685 12 10 0
a range +14010 +14724 1 6 0
a range +14010 +14724 6 1 0
a range +14347 +14997 2 3 0
a range +14347 +14997 3 2 0
a range +14410 +15221 2 14 0
a range +14410 +15221 14 2 0
a range +15172 +15641 3 8 0
a range +15172 +15641 8 3 0
a range +15172 +15641 4 12 0
a range +15172 +15641 12 4 0
a range +15172 +15641 7 9 0
a range +15172 +15641 9 7 0
a range +15172 +15641 11 13 0
a range +15172 +15641 13 11 0
a range +15736 +16582 1 10 0
a range +15736 +16582 10 1 0
a range +16128 +16597 4 6 0
a range +16128 +16597 6 4 0
a range +16128 +16597 5 13 0
a range +16128 +16597 13 5 0
a range +16128 +16597 8 10 0
a range +16128 +16597 10 8 0
a range +16128 +16597 9 14 0
a range +16128 +16597 14 9 0
a range +15997 +16769 1 8 0
a range +15997 +16769 8 1 0
a range +16401 +17005 2 5 0
a range +16401 +17005 5 2 0
a range +16426 +17158 2 13 0
a range +16426 +17158 13 2 0
a range +17084 +17553 3 14 0
a range +17084 +17553 14 3 0
a range +17083 +17553 5 7 0
a range +17083 +17553 7 5 0
a range +17084 +17553 6 11 0
a range +17084 +17553 11 6 0
a range +17083 +17553 10 12 0
a range +17083 +17553 12 10 0
a range +18040 +18509 3 8 0
a range +18040 +18509 8 3 0
a range +18039 +18509 4 12 0
a range +18039 +18509 12 4 0
a range +18039 +18509 7 9 0
a range +18039 +18509 9 7 0
a range +18040 +18509 11 13 0
a range +18040 +18509 13 11 0
a range +17750 +18568 1 9 0
a range +17750 +18568 9 1 0
a range +17982 +18800 1 7 0
a range +17982 +18800 7 1 0
a range +18464 +18991 2 6 0
a range +18464 +18991 6 2 0
a range +18446 +19030 2 4 0
a range +18446 +19030 4 2 0
a range +18474 +19053 2 12 0
a range +18474 +19053 12 2 0
a range +18995 +19465 4 6 0
a range +18995 +19465 6 4 0
a range +18995 +19465 5 13 0
a range +18995 +19465 13 5 0
a range +18995 +19465 8 10 0
a range +18995 +19465 10 8 0
a range +18995 +19465 9 14 0
a range +18995 +19465 14 9 0
a range +19951 +20421 3 14 0
a range +19951 +20421 14 3 0
a range +19951 +20421 5 7 0
a range +19951 +20421 7 5 0
a range +19951 +20421 6 11 0
a range +19951 +20421 11 6 0
a range +19951 +20421 10 12 0
a range +19951 +20421 12 10 0
a range +19781 +20552 1 11 0
a range +19781 +20552 11 1 0
a range +19968 +20814 1 6 0
a range +19968 +20814 6 1 0
a range +20624 +20836 2 14 0
a range +20624 +20836 14 2 0
a range +20346 +21050 2 8 0
a range +20346 +21050 8 2 0
a range +20474 +21071 2 3 0
a range +20474 +21071 3 2 0
a range +20907 +21377 3 8 0
a range +20907 +21377 8 3 0
a range +20907 +21377 4 12 0
a range +20907 +21377 12 4 0
a range +20907 +21377 7 9 0
a range +20907 +21377 9 7 0
a range +20907 +21377 11 13 0
a range +20907 +21377 13 11 0
a range +21863 +22333 4 6 0
a range +21863 +22333 6 4 0
a range +21863 +22333 5 13 0
a range +21863 +22333 13 5 0
a range +21863 +22333 8 10 0
a range +21863 +22333 10 8 0
a range +21863 +22333 9 14 0
a range +21863 +22333 14 9 0
a range +21827 +22540 1 10 0
a range +21827 +22540 10 1 0
a range +21957 +22807 1 8 0
a range +21957 +22807 8 1 0
a range +22275 +23072 2 7 0
a range +22275 +23072 7 2 0
a range +22486 +23124 2 5 0
a range +22486 +23124 5 2 0
a range +22819 +23289 3 14 0
a range +22819 +23289 14 3 0
a range +22819 +23289 5 7 0
a range +22819 +23289 7 5 0
a range +22819 +23289 6 11 0
a range +22819 +23289 11 6 0
a range +22819 +23289 10 12 0
a range +22819 +23289 12 10 0
a range +23775 +24245 3 8 0
a range +23775 +24245 8 3 0
a range +23775 +24245 4 12 0
a range +23775 +24245 12 4 0
a range +23775 +24245 7 9 0
a range +23775 +24245 9 7 0
a range +23775 +24245 11 13 0
a range +23775 +24245 13 11 0
a range +23883 +24533 1 9 0
a range +23883 +24533 9 1 0
a range +23956 +24778 1 7 0
a range +23956 +24778 7 1 0
a range +24234 +25075 2 6 0
a range +24234 +25075 6 2 0
a range +24484 +25179 2 4 0
a range +24484 +25179 4 2 0
a range +24731 +25201 4 6 0
a range +24731 +25201 6 4 0
a range +24731 +25201 5 13 0
a range +24731 +25201 13 5 0
a range +24731 +25201 8 10 0
a range +24731 +25201 10 8 0
a range +24731 +25201 9 14 0
a range +24731 +25201 14 9 0
a range +25687 +26157 3 14 0
a range +25687 +26157 14 3 0
a range +25687 +26157 5 7 0
a range +25687 +26157 7 5 0
a range +25687 +26157 6 11 0
a range +25687 +26157 11 6 0
a range +25687 +26157 10 12 0
a range +25687 +26157 12 10 0
a range +25940 +26538 1 11 0
a range +25940 +26538 11 1 0
a range +25968 +26722 1 6 0
a range +25968 +26722 6 1 0
a range +26218 +27069 2 8 0
a range +26218 +27069 8 2 0
a range +26643 +27112 4 12 0
a range +26643 +27112 12 4 0
a range +26643 +27112 7 9 0
a range +26643 +27112 9 7 0
a range +26643 +27113 3 8 0
a range +26643 +27113 8 3 0
a range +26643 +27113 11 13 0
a range +26643 +27113 13 11 0
a range +26474 +27228 2 3 0
a range +26474 +27228 3 2 0
a range +27599 +28068 4 6 0
a range +27599 +28068 6 4 0
a range +27599 +28068 9 14 0
a range +27599 +28068 14 9 0
a range +27599 +28069 5 13 0
a range +27599 +28069 13 5 0
a range +27599 +28069 8 10 0
a range +27599 +28069 10 8 0
a range +28029 +28513 1 12 0
a range +28029 +28513 12 1 0
a range +27988 +28559 1 10 0
a range +27988 +28559 10 1 0
a range +28007 +28629 1 8 0
a range +28007 +28629 8 1 0
a range +28555 +29024 3 14 0
a range +28555 +29024 14 3 0
a range +28555 +29024 6 11 0
a range +28555 +29024 11 6 0
a range +28555 +29025 5 7 0
a range +28555 +29025 7 5 0
a range +28555 +29025 10 12 0
a range +28555 +29025 12 10 0
a range +28221 +29056 2 7 0
a range +28221 +29056 7 2 0
a range +28460 +29264 2 5 0
a range +28460 +29264 5 2 0
a range +29511 +29980 3 8 0
a range +29511 +29980 8 3 0
a range +29511 +29980 4 12 0
a range +29511 +29980 12 4 0
a range +29511 +29980 7 9 0
a range +29511 +29980 9 7 0
a range +29511 +29980 11 13 0
a range +29511 +29980 13 11 0
a range +30115 +30456 1 7 0
a range +30115 +30456 7 1 0
a range +29899 +30583 1 14 0
a range +29899 +30583 14 1 0
a range +30021 +30599 1 9 0
a range +30021 +30599 9 1 0
a range +30467 +30936 4 6 0
a range +30467 +30936 6 4 0
a range +30467 +30936 5 13 0
a range +30467 +30936 13 5 0
a range +30467 +30936 8 10 0
a range +30467 +30936 10 8 0
a range +30467 +30936 9 14 0
a range +30467 +30936 14 9 0
a range +30244 +31041 2 6 0
a range +30244 +31041 6 2 0
a range +30445 +31284 2 4 0
a range +30445 +31284 4 2 0
a range +31423 +31892 3 14 0
a range +31423 +31892 14 3 0
a range +31423 +31892 5 7 0
a range +31423 +31892 7 5 0
a range +31423 +31892 6 11 0
a range +31423 +31892 11 6 0
a range +31423 +31892 10 12 0
a range +31423 +31892 12 10 0
a range +31822 +32609 1 13 0
a range +31822 +32609 13 1 0
a range +32036 +32652 1 11 0
a range +32036 +32652 11 1 0
a range +32379 +32848 3 8 0
a range +32379 +32848 8 3 0
a range +32379 +32848 4 12 0
a range +32379 +32848 12 4 0
a range +32379 +32848 7 9 0
a range +32379 +32848 9 7 0
a range +32379 +32848 11 13 0
a range +32379 +32848 13 11 0
a range +32282 +33028 2 8 0
a range +32282 +33028 8 2 0
a range +32433 +33285 2 3 0
a range +32433 +33285 3 2 0
a range +33335 +33804 4 6 0
a range +33335 +33804 6 4 0
a range +33335 +33804 5 13 0
a range +33335 +33804 13 5 0
a range +33335 +33804 8 10 0
a range +33335 +33804 10 8 0
a range +33335 +33804 9 14 0
a range +33335 +33804 14 9 0
a range +33778 +34615 1 12 0
a range +33778 +34615 12 1 0
a range +34035 +34710 1 10 0
a range +34035 +34710 10 1 0
a range +34291 +34760 3 14 0
a range +34291 +34760 14 3 0
a range +34291 +34760 5 7 0
a range +34291 +34760 7 5 0
a range +34291 +34760 6 11 0
a range +34291 +34760 11 6 0
a range +34291 +34760 10 12 0
a range +34291 +34760 12 10 0
a range +34332 +35018 2 7 0
a range +34332 +35018 7 2 0
a range +34428 +35265 2 5 0
a range +34428 +35265 5 2 0
a range +35247 +35716 3 8 0
a range +35247 +35716 8 3 0
a range +35247 +35716 4 12 0
a range +35247 +35716 12 4 0
a range +35247 +35716 7 9 0
a range +35247 +35716 9 7 0
a range +35247 +35716 11 13 0
a range +35247 +35716 13 11 0
a range +35758 +36609 1 14 0
a range +35758 +36609 14 1 0
a range +36203 +36672 4 6 0
a range +36203 +36672 6 4 0
a range +36203 +36672 5 13 0
a range +36203 +36672 13 5 0
a range +36203 +36672 8 10 0
a range +36203 +36672 10 8 0
a range +36203 +36672 9 14 0
a range +36203 +36672 14 9 0
a range +36026 +36762 1 9 0
a range +36026 +36762 9 1 0
a range +36387 +37018 2 6 0
a range +36387 +37018 6 2 0
a range +36433 +37221 2 4 0
a range +36433 +37221 4 2 0
a range +37159 +37628 3 14 0
a range +37159 +37628 14 3 0
a range +37159 +37628 5 7 0
a range +37159 +37628 7 5 0
a range +37159 +37628 6 11 0
a range +37159 +37628 11 6 0
a range +37159 +37628 10 12 0
a range +37159 +37628 12 10 0
a range +38115 +38584 3 8 0
a range +38115 +38584 8 3 0
a range +38115 +38584 4 12 0
a range +38115 +38584 12 4 0
a range +38115 +38584 7 9 0
a range +38115 +38584 9 7 0
a range +38115 +38584 11 13 0
a range +38115 +38584 13 11 0
a range +37759 +38597 1 13 0
a range +37759 +38597 13 1 0
a range +38012 +38803 1 11 0
a range +38012 +38803 11 1 0
a range +38618 +38919 2 10 0
a range +38618 +38919 10 2 0
a range +38439 +39032 2 8 0
a range +38439 +39032 8 2 0
a range +38459 +39145 2 3 0
a range +38459 +39145 3 2 0
a range +39071 +39540 4 6 0
a range +39071 +39540 6 4 0
a range +39071 +39540 5 13 0
a range +39071 +39540 13 5 0
a range +39071 +39540 8 10 0
a range +39071 +39540 10 8 0
a range +39071 +39540 9 14 0
a range +39071 +39540 14 9 0
a range +40027 +40496 3 14 0
a range +40027 +40496 14 3 0
a range +40027 +40496 5 7 0
a range +40027 +40496 7 5 0
a range +40027 +40496 6 11 0
a range +40027 +40496 11 6 0
a range +40027 +40496 10 12 0
a range +40027 +40496 12 10 0
a range +39780 +40582 1 12 0
a range +39780 +40582 12 1 0
a range +39996 +40827 1 10 0
a range +39996 +40827 10 1 0
a range +40527 +41016 2 5 0
a range +40527 +41016 5 2 0
a range +40432 +41039 2 9 0
a range +40432 +41039 9 2 0
a range +40478 +41063 2 7 0
a range +40478 +41063 7 2 0
a range +40983 +41452 3 8 0
a range +40983 +41452 8 3 0
a range +40983 +41452 4 12 0
a range +40983 +41452 12 4 0
a range +40983 +41452 7 9 0
a range +40983 +41452 9 7 0
a range +40983 +41452 11 13 0
a range +40983 +41452 13 11 0
a range +41938 +42408 4 6 0
a range +41938 +42408 6 4 0
a range +41939 +42408 5 13 0
a range +41939 +42408 13 5 0
a range +41939 +42408 8 10 0
a range +41939 +42408 10 8 0
a range +41938 +42408 9 14 0
a range +41938 +42408 14 9 0
a range +41817 +42567 1 14 0
a range +41817 +42567 14 1 0
a range +41983 +42834 1 9 0
a range +41983 +42834 9 1 0
a range +42335 +43081 2 11 0
a range +42335 +43081 11 2 0
a range +42500 +43110 2 6 0
a range +42500 +43110 6 2 0
a range +42894 +43364 3 14 0
a range +42894 +43364 14 3 0
a range +42895 +43364 5 7 0
a range +42895 +43364 7 5 0
a range +42894 +43364 6 11 0
a range +42894 +43364 11 6 0
a range +42895 +43364 10 12 0
a range +42895 +43364 12 10 0
a range +43850 +44320 3 8 0
a range +43850 +44320 8 3 0
a range +43851 +44320 4 12 0
a range +43851 +44320 12 4 0
a range +43851 +44320 7 9 0
a range +43851 +44320 9 7 0
a range +43850 +44320 11 13 0
a range +43850 +44320 13 11 0
a range +43867 +44556 1 13 0
a range +43867 +44556 13 1 0
a range +43975 +44819 1 11 0
a range +43975 +44819 11 1 0
a range +44277 +45095 2 10 0
a range +44277 +45095 10 2 0
a range +44507 +45164 2 8 0
a range +44507 +45164 8 2 0
a range +44806 +45276 4 6 0
a range +44806 +45276 6 4 0
a range +44806 +45276 5 13 0
a range +44806 +45276 13 5 0
a range +44806 +45276 8 10 0
a range +44806 +45276 10 8 0
a range +44806 +45276 9 14 0
a range +44806 +45276 14 9 0
a range +45762 +46232 3 14 0
a range +45762 +46232 14 3 0
a range +45762 +46232 5 7 0
a range +45762 +46232 7 5 0
a range +45762 +46232 6 11 0
a range +45762 +46232 11 6 0
a range +45762 +46232 10 12 0
a range +45762 +46232 12 10 0
a range +45924 +46553 1 12 0
a range +45924 +46553 12 1 0
a range +45978 +46781 1 10 0
a range +45978 +46781 10 1 0
a range +46245 +47094 2 9 0
a range +46245 +47094 9 2 0
a range +46718 +47188 3 8 0
a range +46718 +47188 8 3 0
a range +46718 +47188 4 12 0
a range +46718 +47188 12 4 0
a range +46718 +47188 7 9 0
a range +46718 +47188 9 7 0
a range +46718 +47188 11 13 0
a range +46718 +47188 13 11 0
a range +46501 +47218 2 7 0
a range +46501 +47218 7 2 0
a range +47674 +48144 4 6 0
a range +47674 +48144 6 4 0
a range +47674 +48144 5 13 0
a range +47674 +48144 13 5 0
a range +47674 +48144 8 10 0
a range +47674 +48144 10 8 0
a range +47674 +48144 9 14 0
a range +47674 +48144 14 9 0
a range +48216 +48408 1 3 0
a range +48216 +48408 3 1 0
a range +47979 +48564 1 14 0
a range +47979 +48564 14 1 0
a range +47998 +48713 1 9 0
a range +47998 +48713 9 1 0
a range +48237 +49084 2 11 0
a range +48237 +49084 11 2 0
a range +48630 +49100 3 14 0
a range +48630 +49100 14 3 0
a range +48630 +49100 5 7 0
a range +48630 +49100 7 5 0
a range +48630 +49100 6 11 0
a range +48630 +49100 11 6 0
a range +48630 +49100 10 12 0
a range +48630 +49100 12 10 0
a range +48489 +49263 2 6 0
a range +48489 +49263 6 2 0
a range +49586 +50056 3 8 0
a range +49586 +50056 8 3 0
a range +49586 +50056 4 12 0
a range +49586 +50056 12 4 0
a range +49586 +50056 7 9 0
a range +49586 +50056 9 7 0
a range +49586 +50056 11 13 0
a range +49586 +50056 13 11 0
a range +49991 +50567 1 5 0
a range +49991 +50567 5 1 0
a range +50023 +50592 1 13 0
a range +50023 +50592 13 1 0
a range +50053 +50599 1 11 0
a range +50053 +50599 11 1 0
a range +50542 +51012 4 6 0
a range +50542 +51012 6 4 0
a range +50542 +51012 5 13 0
a range +50542 +51012 13 5 0
a range +50542 +51012 8 10 0
a range +50542 +51012 10 8 0
a range +50542 +51012 9 14 0
a range +50542 +51012 14 9 0
a range +50248 +51071 2 10 0
a range +50248 +51071 10 2 0
a range +50474 +51293 2 8 0
a range +50474 +51293 8 2 0
a range +51498 +51967 3 14 0
a range +51498 +51967 14 3 0
a range +51498 +51967 6 11 0
a range +51498 +51967 11 6 0
a range +51498 +51968 5 7 0
a range +51498 +51968 7 5 0
a range +51498 +51968 10 12 0
a range +51498 +51968 12 10 0
a range +51886 +52616 1 4 0
a range +51886 +52616 4 1 0
a range +52048 +52638 1 12 0
a range +52048 +52638 12 1 0
a range +52454 +52923 3 8 0
a range +52454 +52923 8 3 0
a range +52454 +52923 11 13 0
a range +52454 +52923 13 11 0
a range +52454 +52924 4 12 0
a range +52454 +52924 12 4 0
a range +52454 +52924 7 9 0
a range +52454 +52924 9 7 0
a range +52276 +53056 2 9 0
a range +52276 +53056 9 2 0
a range +52460 +53306 2 7 0
a range +52460 +53306 7 2 0
a range +53410 +53879 5 13 0
a range +53410 +53879 13 5 0
a range +53410 +53879 8 10 0
a range +53410 +53879 10 8 0
a range +53410 +53880 4 6 0
a range +53410 +53880 6 4 0
a range +53410 +53880 9 14 0
a range +53410 +53880 14 9 0
a range +53822 +54633 1 3 0
a range +53822 +54633 3 1 0
a range +54057 +54693 1 14 0
a range +54057 +54693 14 1 0
a range +54366 +54835 3 14 0
a range +54366 +54835 14 3 0
a range +54366 +54835 5 7 0
a range +54366 +54835 7 5 0
a range +54366 +54835 6 11 0
a range +54366 +54835 11 6 0
a range +54366 +54835 10 12 0
a range +54366 +54835 12 10 0
a range +54319 +55043 2 11 0
a range +54319 +55043 11 2 0
a range +54450 +55300 2 6 0
a range +54450 +55300 6 2 0
a range +55322 +55791 3 8 0
a range +55322 +55791 8 3 0
a range +55322 +55791 4 12 0
a range +55322 +55791 12 4 0
a range +55322 +55791 7 9 0
a range +55322 +55791 9 7 0
a range +55322 +55791 11 13 0
a range +55322 +55791 13 11 0
a range +55787 +56634 1 5 0
a range +55787 +56634 5 1 0
a range +56278 +56747 4 6 0
a range +56278 +56747 6 4 0
a range +56278 +56747 5 13 0
a range +56278 +56747 13 5 0
a range +56278 +56747 8 10 0
a range +56278 +56747 10 8 0
a range +56278 +56747 9 14 0
a range +56278 +56747 14 9 0
a range +56053 +56750 1 13 0
a range +56053 +56750 13 1 0
a range +56372 +57037 2 10 0
a range +56372 +57037 10 2 0
a range +56448 +57272 2 8 0
a range +56448 +57272 8 2 0
a range +57234 +57703 3 14 0
a range +57234 +57703 14 3 0
a range +57234 +57703 5 7 0
a range +57234 +57703 7 5 0
a range +57234 +57703 6 11 0
a range +57234 +57703 11 6 0
a range +57234 +57703 10 12 0
a range +57234 +57703 12 10 0
a range +57776 +58625 1 4 0
a range +57776 +58625 4 1 0
a range +58190 +58659 3 8 0
a range +58190 +58659 8 3 0
a range +58190 +58659 4 12 0
a range +58190 +58659 12 4 0
a range +58190 +58659 7 9 0
a range +58190 +58659 9 7 0
a range +58190 +58659 11 13 0
a range +58190 +58659 13 11 0
a range +58041 +58799 1 12 0
a range +58041 +58799 12 1 0
a range +58427 +59041 2 9 0
a range +58427 +59041 9 2 0
a range +58460 +59217 2 7 0
a range +58460 +59217 7 2 0
a range +59146 +59615 4 6 0
a range +59146 +59615 6 4 0
a range +59146 +59615 5 13 0
a range +59146 +59615 13 5 0
a range +59146 +59615 8 10 0
a range +59146 +59615 10 8 0
a range +59146 +59615 9 14 0
a range +59146 +59615 14 9 0
a range +60102 +60571 3 14 0
a range +60102 +60571 14 3 0
a range +60102 +60571 5 7 0
a range +60102 +60571 7 5 0
a range +60102 +60571 6 11 0
a range +60102 +60571 11 6 0
a range +60102 +60571 10 12 0
a range +60102 +60571 12 10 0
a range +59784 +60612 1 3 0
a range +59784 +60612 3 1 0
a range +60026 +60834 1 14 0
a range +60026 +60834 14 1 0
a range +60549 +61003 2 13 0
a range +60549 +61003 13 2 0
a range +60475 +61061 2 11 0
a range +60475 +61061 11 2 0
a range +60497 +61125 2 6 0
a range +60497 +61125 6 2 0
a range +61058 +61527 3 8 0
a range +61058 +61527 8 3 0
a range +61058 +61527 4 12 0
a range +61058 +61527 12 4 0
a range +61058 +61527 7 9 0
a range +61058 +61527 9 7 0
a range +61058 +61527 11 13 0
a range +61058 +61527 13 11 0
a range +62014 +62483 4 6 0
a range +62014 +62483 6 4 0
a range +62014 +62483 5 13 0
a range +62014 +62483 13 5 0
a range +62014 +62483 8 10 0
a range +62014 +62483 10 8 0
a range +62014 +62483 9 14 0
a range +62014 +62483 14 9 0
a range +61811 +62596 1 5 0
a range +61811 +62596 5 1 0
a range +62011 +62852 1 13 0
a range +62011 +62852 13 1 0
a range +62599 +62959 2 8 0
a range +62599 +62959 8 2 0
a range +62410 +63079 2 12 0
a range +62410 +63079 12 2 0
a range +62508 +63099 2 10 0
a range +62508 +63099 10 2 0
a range +62970 +63439 3 14 0
a range +62970 +63439 14 3 0
a range +62970 +63439 5 7 0
a range +62970 +63439 7 5 0
a range +62970 +63439 6 11 0
a range +62970 +63439 11 6 0
a range +62970 +63439 10 12 0
a range +62970 +63439 12 10 0
a range +63926 +64395 3 8 0
a range +63926 +64395 8 3 0
a range +63926 +64395 4 12 0
a range +63926 +64395 12 4 0
a range +63926 +64395 7 9 0
a range +63926 +64395 9 7 0
a range +63926 +64395 11 13 0
a range +63926 +64395 13 11 0
a range +63854 +64582 1 4 0
a range +63854 +64582 4 1 0
a range +63999 +64850 1 12 0
a range +63999 +64850 12 1 0
a range +64329 +65108 2 14 0
a range +64329 +65108 14 2 0
a range +64524 +65149 2 9 0
a range +64524 +65149 9 2 0
a range +64882 +65351 4 6 0
a range +64882 +65351 6 4 0
a range +64882 +65351 5 13 0
a range +64882 +65351 13 5 0
a range +64882 +65351 8 10 0
a range +64882 +65351 10 8 0
a range +64882 +65351 9 14 0
a range +64882 +65351 14 9 0
a range +65838 +66307 3 14 0
a range +65838 +66307 14 3 0
a range +65838 +66307 5 7 0
a range +65838 +66307 7 5 0
a range +65838 +66307 6 11 0
a range +65838 +66307 11 6 0
a range +65838 +66307 10 12 0
a range +65838 +66307 12 10 0
a range +65908 +66573 1 3 0
a range +65908 +66573 3 1 0
a range +65995 +66828 1 14 0
a range +65995 +66828 14 1 0
a range +66282 +67115 2 13 0
a range +66282 +67115 13 2 0
a range +66525 +67205 2 11 0
a range +66525 +67205 11 2 0
a range +66793 +67263 3 8 0
a range +66793 +67263 8 3 0
a range +66794 +67263 4 12 0
a range +66794 +67263 12 4 0
a range +66794 +67263 7 9 0
a range +66794 +67263 9 7 0
a range +66793 +67263 11 13 0
a range +66793 +67263 13 11 0
a range +67750 +68219 4 6 0
a range +67750 +68219 6 4 0
a range +67749 +68219 5 13 0
a range +67749 +68219 13 5 0
a range +67749 +68219 8 10 0
a range +67749 +68219 10 8 0
a range +67750 +68219 9 14 0
a range +67750 +68219 14 9 0
a range +67965 +68575 1 5 0
a range +67965 +68575 5 1 0
a range +68003 +68779 1 13 0
a range +68003 +68779 13 1 0
a range +68259 +69111 2 12 0
a range +68259 +69111 12 2 0
a range +68705 +69175 3 14 0
a range +68705 +69175 14 3 0
a range +68705 +69175 5 7 0
a range +68705 +69175 7 5 0
a range +68705 +69175 6 11 0
a range +68705 +69175 11 6 0
a range +68705 +69175 10 12 0
a range +68705 +69175 12 10 0
a range +68517 +69256 2 10 0
a range +68517 +69256 10 2 0
a range +69661 +70131 3 8 0
a range +69661 +70131 8 3 0
a range +69661 +70131 4 12 0
a range +69661 +70131 12 4 0
a range +69661 +70131 7 9 0
a range +69661 +70131 9 7 0
a range +69661 +70131 11 13 0
a range +69661 +70131 13 11 0
a range +70120 +70518 1 6 0
a range +70120 +70518 6 1 0
a range +70017 +70592 1 4 0
a range +70017 +70592 4 1 0
a range +70033 +70697 1 12 0
a range +70033 +70697 12 1 0
a range +70617 +71087 4 6 0
a range +70617 +71087 6 4 0
a range +70617 +71087 5 13 0
a range +70617 +71087 13 5 0
a range +70617 +71087 8 10 0
a range +70617 +71087 10 8 0
a range +70617 +71087 9 14 0
a range +70617 +71087 14 9 0
a range +70258 +71099 2 14 0
a range +70258 +71099 14 2 0
a range +70504 +71296 2 9 0
a range +70504 +71296 9 2 0
a range +71573 +72043 3 14 0
a range +71573 +72043 14 3 0
a range +71573 +72043 5 7 0
a range +71573 +72043 7 5 0
a range +71573 +72043 6 11 0
a range +71573 +72043 11 6 0
a range +71573 +72043 10 12 0
a range +71573 +72043 12 10 0
a range +72113 +72555 1 14 0
a range +72113 +72555 14 1 0
a range +71965 +72610 1 8 0
a range +71965 +72610 8 1 0
a range +72054 +72627 1 3 0
a range +72054 +72627 3 1 0
a range +72529 +72999 3 8 0
a range +72529 +72999 8 3 0
a range +72529 +72999 4 12 0
a range +72529 +72999 12 4 0
a range +72529 +72999 7 9 0
a range +72529 +72999 9 7 0
a range +72529 +72999 11 13 0
a range +72529 +72999 13 11 0
a range +72276 +73085 2 13 0
a range +72276 +73085 13 2 0
a range +72489 +73320 2 11 0
a range +72489 +73320 11 2 0
a range +73485 +73955 4 6 0
a range +73485 +73955 6 4 0
a range +73485 +73955 5 13 0
a range +73485 +73955 13 5 0
a range +73485 +73955 8 10 0
a range +73485 +73955 10 8 0
a range +73485 +73955 9 14 0
a range +73485 +73955 14 9 0
a range +73878 +74644 1 7 0
a range +73878 +74644 7 1 0
a range +74073 +74677 1 5 0
a range +74073 +74677 5 1 0
a range +74441 +74911 3 14 0
a range +74441 +74911 14 3 0
a range +74441 +74911 5 7 0
a range +74441 +74911 7 5 0
a range +74441 +74911 6 11 0
a range +74441 +74911 11 6 0
a range +74441 +74911 10 12 0
a range +74441 +74911 12 10 0
a range +74311 +75070 2 12 0
a range +74311 +75070 12 2 0
a range +74476 +75326 2 10 0
a range +74476 +75326 10 2 0
a range +75397 +75866 3 8 0
a range +75397 +75866 8 3 0
a range +75397 +75866 11 13 0
a range +75397 +75866 13 11 0
a range +75397 +75867 4 12 0
a range +75397 +75867 12 4 0
a range +75397 +75867 7 9 0
a range +75397 +75867 9 7 0
a range +75826 +76654 1 6 0
a range +75826 +76654 6 1 0
a range +76076 +76735 1 4 0
a range +76076 +76735 4 1 0
a range +76353 +76822 5 13 0
a range +76353 +76822 13 5 0
a range +76353 +76822 8 10 0
a range +76353 +76822 10 8 0
a range +76353 +76823 4 6 0
a range +76353 +76823 6 4 0
a range +76353 +76823 9 14 0
a range +76353 +76823 14 9 0
a range +76358 +77060 2 14 0
a range +76358 +77060 14 2 0
a range +76468 +77312 2 9 0
a range +76468 +77312 9 2 0
a range +77309 +77778 5 7 0
a range +77309 +77778 7 5 0
a range +77309 +77778 10 12 0
a range +77309 +77778 12 10 0
a range +77309 +77779 3 14 0
a range +77309 +77779 14 3 0
a range +77309 +77779 6 11 0
a range +77309 +77779 11 6 0
a range +77800 +78651 1 8 0
a range +77800 +78651 8 1 0
a range +78265 +78734 3 8 0
a range +78265 +78734 8 3 0
a range +78265 +78734 4 12 0
a range +78265 +78734 12 4 0
a range +78265 +78734 7 9 0
a range +78265 +78734 9 7 0
a range +78265 +78734 11 13 0
a range +78265 +78734 13 11 0
a range +78069 +78789 1 3 0
a range +78069 +78789 3 1 0
a range +78413 +79057 2 13 0
a range +78413 +79057 13 2 0
a range +78470 +79275 2 11 0
a range +78470 +79275 11 2 0
a range +79221 +79690 4 6 0
a range +79221 +79690 6 4 0
a range +79221 +79690 5 13 0
a range +79221 +79690 13 5 0
a range +79221 +79690 8 10 0
a range +79221 +79690 10 8 0
a range +79221 +79690 9 14 0
a range +79221 +79690 14 9 0
a range +79797 +80640 1 7 0
a range +79797 +80640 7 1 0
a range +80177 +80646 3 14 0
a range +80177 +80646 14 3 0
a range +80177 +80646 5 7 0
a range +80177 +80646 7 5 0
a range +80177 +80646 6 11 0
a range +80177 +80646 11 6 0
a range +80177 +80646 10 12 0
a range +80177 +80646 12 10 0
a range +80055 +80833 1 5 0
a range +80055 +80833 5 1 0
a range +80790 +80845 2 4 0
a range +80790 +80845 4 2 0
a range +80466 +81067 2 12 0
a range +80466 +81067 12 2 0
a range +80489 +81208 2 10 0
a range +80489 +81208 10 2 0
a range +81133 +81602 3 8 0
a range +81133 +81602 8 3 0
a range +81133 +81602 4 12 0
a range +81133 +81602 12 4 0
a range +81133 +81602 7 9 0
a range +81133 +81602 9 7 0
a range +81133 +81602 11 13 0
a range +81133 +81602 13 11 0
a range +82089 +82558 4 6 0
a range +82089 +82558 6 4 0
a range +82089 +82558 5 13 0
a range +82089 +82558 13 5 0
a range +82089 +82558 8 10 0
a range +82089 +82558 10 8 0
a range +82089 +82558 9 14 0
a range +82089 +82558 14 9 0
a range +81812 +82626 1 6 0
a range +81812 +82626 6 1 0
a range +82040 +82862 1 4 0
a range +82040 +82862 4 1 0
a range +82506 +83060 2 3 0
a range +82506 +83060 3 2 0
a range +82509 +83093 2 14 0
a range +82509 +83093 14 2 0
a range +82542 +83097 2 9 0
a range +82542 +83097 9 2 0
a range +83045 +83514 3 14 0
a range +83045 +83514 14 3 0
a range +83045 +83514 5 7 0
a range +83045 +83514 7 5 0
a range +83045 +83514 6 11 0
a range +83045 +83514 11 6 0
a range +83045 +83514 10 12 0
a range +83045 +83514 12 10 0
a range +84001 +84470 3 8 0
a range +84001 +84470 8 3 0
a range +84001 +84470 4 12 0
a range +84001 +84470 12 4 0
a range +84001 +84470 7 9 0
a range +84001 +84470 9 7 0
a range +84001 +84470 11 13 0
a range +84001 +84470 13 11 0
a range +83845 +84610 1 8 0
a range +83845 +84610 8 1 0
a range +84752 +84819 2 11 0
a range +84752 +84819 11 2 0
a range +84026 +84873 1 3 0
a range +84026 +84873 3 1 0
a range +84395 +85113 2 5 0
a range +84395 +85113 5 2 0
a range +84536 +85136 2 13 0
a range +84536 +85136 13 2 0
a range +84957 +85426 4 6 0
a range +84957 +85426 6 4 0
a range +84957 +85426 5 13 0
a range +84957 +85426 13 5 0
a range +84957 +85426 8 10 0
a range +84957 +85426 10 8 0
a range +84957 +85426 9 14 0
a range +84957 +85426 14 9 0
a range +85913 +86382 3 14 0
a range +85913 +86382 14 3 0
a range +85913 +86382 5 7 0
a range +85913 +86382 7 5 0
a range +85913 +86382 6 11 0
a range +85913 +86382 11 6 0
a range +85913 +86382 10 12 0
a range +85913 +86382 12 10 0

